Generating Leslie matrices • mpmsim
…
maturityParam <- c(0, 0)

(myMatrices <- rand_leslie_set(
  n_models = 50,
  mortality_model = "GompertzMakeham",
  reproduction_model = "step",
  mortality_params = mortParams,
  reproduction_params = reproductionParams,
  reproduction_maturity_params = maturityParam,
  dist_type = "uniform",
  output = "Type1"
))
#> A COM(P)ADRE database ('CompadreDB') object with ?? SPECIES and 50 MATRICES.
#> 
#> # A tibble: 50 × 8
#>    mat        mortality_model      b_0    b_1     C reproduction_model     A
#>    <list>     <chr>              <dbl>  <dbl> <dbl> <chr>              <dbl>
#>  1 <CompdrMt> gompertzmakeham 0.0457   0.141  0.129 step                8.64
#>  2 <CompdrMt> gompertzmakeham 0.0321   0.0827 0.174 step                3.08
#>  3 <CompdrMt> gompertzmakeham 0.0328   0.109  0.146 step                7.75
#>  4 <CompdrMt> gompertzmakeham 0.0467   0.0458 0.146 step                9.52
#>  5 <CompdrMt> gompertzmakeham 0.0489   0.0264 0.147 step                6.48
#>  6 <CompdrMt> gompertzmakeham 0.0452   0.0294 0.199 step                9.57
#>  7 <CompdrMt> gompertzmakeham 0.00412  0.0820 0.139 step                9.25
#>  8 <CompdrMt> gompertzmakeham 0.0223   0.127  0.174 step                8.49
#>  9 <CompdrMt> gompertzmakeham 0.0194   0.106  0.100 step                8.66
#> 10 <CompdrMt> gompertzmakeham 0.000367 0.0391 0.191 step                6.89
#> # ℹ 40 more rows
#> # ℹ 1 more variable: reproduction_scaling <dbl>
…
